﻿[
    {
        "_id":"c-10",
        "_parentId":"b-10",
        "_type":"component",
        "_component":"text",
        "_classes":"",
        "_layout":"full",
        "title":"Введение",
        "displayTitle":"",
        "body":"Мобильное устройство ― это не просто очередной гаджет у нас в кармане. Оно помогает нам общаться, находить нужную информацию и служит неиссякаемым источником развлечений.  С помощью мобильных устройств мы ищем то, что способно нас вдохновить, узнаем о брендах и находим нужные товары.  В эпоху «мобильной» торговли покупатели реагируют на вдохновляющие образы и ожидают, что процесс покупки будет максимально удобным.  Формат подборки позволяет компаниям рассказать о себе, представить товары и подчеркнуть их преимущества в одном рекламном объявлении.",
        "instruction":"",
        "_pageLevelProgress": {
            "_isEnabled": true
        }
    },
    {
        "_id":"c-20",
        "_parentId":"b-20",
        "_type":"component",
        "_component":"text",
        "_classes":"",
        "_layout":"full",
        "title":"Что такое подборка?",
        "displayTitle":"Что такое подборка?",
        "body":"Подборка ― это формат рекламы на Facebook, предназначенный исключительно для мобильных устройств. Такая реклама состоит из фото или видео и четырех изображений продуктов под ним. Она отображается в Ленте новостей. При нажатии этой рекламы прямо в приложении Facebook во весь экран открывается расширенный ассортимент товаров. Затем, если человек касается изображения того или иного товара, он переходит на соответствующую страницу на вашем мобильном сайте или в приложении. Если человек хочет посмотреть другие товары, он может нажать кнопку «Еще». В итоге на ваш мобильный сайт или в приложение попадают лишь самые заинтересованные потенциальные покупатели, которые с большой вероятностью выполнят конверсию. Таким образом, подборка помогает повысить узнаваемость бренда, найти новых клиентов и увеличить вероятность совершения покупки.",
        "instruction":"",
        "_pageLevelProgress": {
            "_isEnabled": true
        }
    },
    {
        "_id": "c-25",
        "_parentId": "b-20",
        "_type": "component",
        "_component": "media",
        "_classes": "",
        "_layout": "full",
        "title": "",
        "displayTitle": "",
        "body": "",
        "instruction": "",
        "_pageLevelProgress": {
            "_isEnabled": false
        },
        "_setCompletionOn": "inview",
        "_useClosedCaptions": true,
        "_startLanguage": "en",
        "_media": {
            "mp4": "course/en/images/01_introduction/collection_sizzle.mp4"
        },
        "_playerOptions": {
            "poster": "course/en/images/01_introduction/sizzle_poster.png",
            "showPosterWhenEnded": false,
            "defaultVideoWidth": 480,
            "defaultVideoHeight": 270,
            "videoWidth": -1,
            "videoHeight": -1,
            "defaultAudioWidth": 400,
            "defaultAudioHeight": 30,
            "defaultSeekBackwardInterval": "(media.duration * 0.05)",
            "defaultSeekForwardInterval": "(media.duration * 0.05)",
            "audioWidth": -1,
            "audioHeight": -1,
            "startVolume": 0.8,
            "loop": false,
            "autoRewind": true,
            "enableAutosize": true,
            "alwaysShowHours": false,
            "showTimecodeFrameCount": false,
            "framesPerSecond": 25,
            "autosizeProgress": true,
            "alwaysShowControls": false,
            "hideVideoControlsOnLoad": false,
            "clickToPlayPause": true,
            "iPadUseNativeControls": false,
            "iPhoneUseNativeControls": false,
            "AndroidUseNativeControls": false,
            "features": ["playpause", "current", "progress", "duration", "tracks", "volume", "fullscreen"],
            "isVideo": true,
            "enableKeyboard": true,
            "pauseOtherPlayers": true,
            "startLanguage": "",
            "tracksText": "mejs.i18n.t('Captions/Subtitles')",
            "hideCaptionsButtonWhenEmpty": true,
            "toggleCaptionsButtonWhenOnlyOne": false,
            "slidesSelector": ""
        }
    },
    {
        "_id":"c-30",
        "_parentId":"b-30",
        "_type":"component",
        "_component":"animate-message",
        "_classes":"",
        "_layout":"left",
        "title":"Преимущества рекламы в формате подборки",
        "displayTitle":"",
        "body":"<br><br>Реклама в формате подборки позволяет:",
        "instruction":"",
        "titleAnimation":"transition.slideRightIn",
        "bodyAnimation":"transition.slideRightIn",
        "backgroundColor":"#ffffff,#ffffff,#ffffff",
        "_spacing":"10px",
        "_cornerRadius":"0px",
        "_pageLevelProgress": {
            "_isEnabled": true
        },
        "_items": [
            {
                "body":"<div style='padding-left:15px;padding-right:10px;padding-top:10px;'><b>повысить узнаваемость бренда:</b><br> используйте видео, чтобы продемонстрировать товары и/или их особенности;</div>"
            },
            {
                "body":"<div style='padding-left:15px;padding-right:10px;padding-top:10px;'><b>найти новых клиентов:</b><br> создайте удобный мобильный интерфейс, который станет альтернативой целевым страницам и поможет генерировать лиды;</div>"
            },
            {
                "body":"<div style='padding-left:15px;padding-right:10px;padding-top:10px;'><b>увеличить количество покупок с мобильных устройств:</b><br> помогите людям, которые заинтересовались вашими товарами, продолжить покупку на сайте или в приложении.</div>"
            }
        ]
    },
    {
        "_id":"c-31",
        "_parentId":"b-30",
        "_type":"component",
        "_component":"framed-video",
        "_classes":"",
        "_layout":"right",
        "title":"",
        "displayTitle":"",
        "body":"",
        "instruction":"",
        "_videoPt":{"x":"0px","y":"px"},
        "_componentHeight":"550px",
        "_mute":"true",
        "_items": [
            {
                "frame":  "<img width='100%' height='100%' src='course/en/images/01_introduction/shopbop_frame.png'/>"
            },
            {
                "video":  "<video controls id='vid' width='270px' controls='controls'><source src='course/en/images/01_introduction/shopbop.mp4' type='video/mp4'>Your browser doesn't support mp4 video formats.</video>"
            }
        ]
    },
    {
        "_id":"c-40",
        "_parentId":"b-40",
        "_type":"component",
        "_component":"text",
        "_classes":"",
        "_layout":"full",
        "title":"Поддерживаемые цели",
        "displayTitle":"",
        "body":"<br>Формат подборки поддерживает цели «Трафик» («Клики на сайт» и «Вовлеченность для приложения») и «Конверсии», что помогает рекламодателям привлечь внимание мобильных пользователей к товарам и увеличить продажи. И самое главное: этот формат позволяет покупателям быстро пройти путь от знакомства с товаром до покупки, не покидая Facebook.",
        "instruction":"",
        "_pageLevelProgress": {
            "_isEnabled": true
        }
    },
    {
        "_id": "c-90",
        "_parentId": "b-90",
        "_type": "component",
        "_component": "co-jump",
        "_classes": "color-test",
        "_preLinkBody": "Следующая тема — ",
        "_linkBody": "Оформление рекламы в формате подборки",
        "_postLinkBody": ".",
        "_link": "#/id/co-100",
        "_graphic": "adapt/css/assets/icon_nextPage.png",
        "_pageLevelProgress": {
            "_isEnabled": false
        }
    },

    {
        "_id":"c-100",
        "_parentId":"b-100",
        "_type":"component",
        "_component":"animate-message",
        "_classes":"",
        "_layout":"full",
        "title":"Советы по использованию формата подборки",
        "displayTitle":"Советы по использованию формата подборки",
        "body":"",
        "instruction":"",
        "titleAnimation":"transition.slideRightIn",
        "bodyAnimation":"transition.slideLeftIn",
        "backgroundColor":"#4080ff,#4080ff,#4080ff,#4080ff",
        "_spacing":"10px",
        "_cornerRadius":"0px",
        "_pageLevelProgress": {
            "_isEnabled": true
        },
        "_items": [
        {
            "item_title": "<div style='padding-left:15px;padding-top:20px; color:#ffffff;'><b>Вдохновите клиентов</b></div>",
            "body":"<div style='padding-left:15px;padding-right:10px;padding-top:20px; color:#ffffff;'>Расскажите о своем бренде или товарах с помощью фото или видео, чтобы люди захотели узнать больше о вас и купить ваши товары.</div>"
        },
        {
            "item_title": "<div style='padding-left:15px;padding-top:20px; color:#ffffff;'><b>Расскажите о себе</b></div>",
            "body":"<div style='padding-left:15px;padding-right:10px;padding-top:20px; color:#ffffff;'>Добавьте в рекламу товары, представленные на фото или в видео, и придумайте броский заголовок.</div>"
        },
        {
            "item_title": "<div style='padding-left:15px;padding-top:20px; color:#ffffff;'><b>Выберите тему</b></div>",
            "body":"<div style='padding-left:15px;padding-right:10px;padding-top:20px; color:#ffffff;'>Выберите тему для своей подборки: время года, определенные аудитории, стили, продажи/промоакции и рекомендации по подаркам.</div>"
        },
        {
            "item_title": "<div style='padding-left:15px;padding-top:20px; color:#ffffff;'><b>Оптимизируйте рекламу для мобильных устройств</b></div>",
            "body":"<div style='padding-left:15px;padding-right:10px;padding-top:20px; color:#ffffff;'>Если ваш мобильный сайт оставляет желать лучшего, вы не добьетесь нужных результатов даже от хорошей рекламы.</div>"
        }
        ]
    },
    {
        "_id":"c-110",
        "_parentId":"b-110",
        "_type":"component",
        "_component":"canvas-animation",
        "_classes":"",
        "_layout":"full",
        "title":"WeightScale",
        "displayTitle":"",
        "animationName":"Chat_bubble_image",
        "animation":"course/en/animations/chat_bubble_image/chat_bubble_image.js",
        "body":"<div id='chat_bubble_image'></div>",
        "_resources": {
            "textStyle_1":{"font":"16px freight-sans-pro","fill": "#ffffff","wordWrap": true,"wordWrapWidth":200,"align": "center","lineSpacing": -10 },
            "phone_slice":"course/en/animations/chat_bubble_image/creative_callouts.png",
            "tiny_arrow":"course/en/animations/chat_bubble_image/tinyarrow.png",
            "message_1":"Быстро привлеките внимание с помощью видео.",
            "message_2":"Добавьте призыв к действию в заголовке.",
            "message_3":"Подчеркните разнообразие товаров. Чем шире ассортимент товаров, тем лучше."
        },
        "instruction":"",
        "_pageLevelProgress": {
        "_isEnabled": false
        }
    },
    {
        "_id": "c-190",
        "_parentId": "b-190",
        "_type": "component",
        "_component": "text",
        "_classes": "",
        "_layout": "full",
        "title": "Изучите другие рекомендации по оформлению",
        "displayTitle": "Изучите другие рекомендации по оформлению",
        "body": "<a href='#/id/co-150'>Советы по оформлению кампаний с каталогом продуктов</a><br><br><a href='#/id/co-200'>Советы по оформлению кампаний без каталога продуктов</a>",
        "_pageLevelProgress": {
            "_isEnabled": true
        }
    },



    {
        "_id": "c-200",
        "_parentId": "b-200",
        "_type": "component",
        "_component": "text",
        "_classes": "",
        "_layout": "left",
        "title": "Создайте руководство",
        "displayTitle": "",
        "body": "<br><br><h2>Создайте руководство</h2><br><br>Подборку можно использовать, чтобы показать потенциальным покупателям, как пользоваться вашими товарами или услугами.  Такие видео помогут вдохновить покупателей и позволят им оценить все преимущества ваших товаров.  Хорошей идеей также будет пригласить блогеров или знаменитостей. Пусть они покажут, как пользуются вашими продуктами.",
        "_pageLevelProgress": {
            "_isEnabled": true
        }
    },
    {
        "_id":"c-201",
        "_parentId":"b-200",
        "_type":"component",
        "_component":"framed-video",
        "_classes":"",
        "_layout":"right",
        "title":"",
        "displayTitle":"",
        "body":"",
        "instruction":"",
        "_mute":"true",
        "_videoPt":{"x":"13px","y":"71px"},
        "_componentHeight":"550px",
        "_items": [
            {
                "frame":  "<img width='100%' height='100%' src='course/en/images/02_businesses_using_collection/android_frame.png'/>"
            },
            {
                "video":  "<video controls id='vid' width='242px' controls='controls'><source src='course/en/images/03_cc_product_catalog/lowes.mp4' type='video/mp4'></video>"
            }
        ]
    },

    {
        "_id": "c-210",
        "_parentId": "b-210",
        "_type": "component",
        "_component": "text",
        "_classes": "",
        "_layout": "left",
        "title": "Оптимизируйте материалы",
        "displayTitle": "",
        "body": "<br><br><h2>Оптимизируйте материалы</h2><br><br>Подборка позволяет увлекательно рассказать о бренде с помощью имеющихся качественных видео.  Видео должно привлекать внимание аудитории в первые несколько секунд, а его посыл должен быть понятен даже без звука.  Наконец, убедитесь, что товары в миниатюрах связаны с вашим видео.",
        "_pageLevelProgress": {
            "_isEnabled": true
        }
    },
    {
        "_id":"c-211",
        "_parentId":"b-210",
        "_type":"component",
        "_component":"framed-video",
        "_classes":"",
        "_layout":"right",
        "title":"",
        "displayTitle":"",
        "body":"",
        "instruction":"",
        "_mute":"true",
        "_videoPt":{"x":"0px","y":"0px"},
        "_componentHeight":"600px",
        "_items": [
            {
                "video":  "<video controls id='vid' width='271px' controls='controls'><source src='course/en/images/03_cc_product_catalog/cartier.mp4' type='video/mp4'>Your browser doesn't support mp4 video formats.</video>"
            }
        ]
    },
    {
        "_id": "c-220",
        "_parentId": "b-220",
        "_type": "component",
        "_component": "text",
        "_classes": "",
        "_layout": "left",
        "title": "Привлеките внимание с помощью движения",
        "displayTitle": "",
        "body": "<br><h2>Привлеките внимание с помощью движения</h2><br><br>Подборка позволяет брендам использовать возможности движения.  Видео в 5 раз лучше удерживает внимание, чем статические изображения, поэтому рекомендуем использовать GIF, анимированные фото и другие короткие циклические видео, чтобы привлечь внимание аудитории.",
        "_pageLevelProgress": {
            "_isEnabled": true
        }
    },
    {
        "_id":"c-221",
        "_parentId":"b-220",
        "_type":"component",
        "_component":"framed-video",
        "_classes":"",
        "_layout":"right",
        "title":"",
        "displayTitle":"",
        "body":"",
        "instruction":"",
        "_mute":"true",
        "_videoPt":{"x":"0px","y":"1px"},
        "_componentHeight":"550px",
        "_items": [
            {
                "video":  "<video controls id='vid' width='271px' controls='controls'><source src='course/en/images/03_cc_product_catalog/sportchek.mp4' type='video/mp4'></video>"
            }
        ]
    },
    {
        "_id": "c-230",
        "_parentId": "b-230",
        "_type": "component",
        "_component": "text",
        "_classes": "",
        "_layout": "left",
        "title": "Расскажите подробнее о каком-либо продукте, чтобы продать связанные с ним товары",
        "displayTitle": "",
        "body": "<br><br><h2>Расскажите подробнее о каком-либо продукте, чтобы продать связанные с ним товары</h2><br><br>Вы можете выбрать один продукт и подробно рассказать о его особенностях, чтобы убедить людей посмотреть всю подборку.  Если вы выбрали этот вариант, обязательно представьте в миниатюрах тот же самый продукт, а также связанные с ним товары.",
        "_pageLevelProgress": {
            "_isEnabled": true
        }
    },
    {
        "_id":"c-231",
        "_parentId":"b-230",
        "_type":"component",
        "_component":"framed-video",
        "_classes":"",
        "_layout":"right",
        "title":"",
        "displayTitle":"",
        "body":"",
        "instruction":"",
        "_mute":"true",
        "_videoPt":{"x":"12px","y":"68px"},
        "_componentHeight":"550px",
        "_items": [
            {
                "frame":  "<img width='120%' height='120%' src='course/en/images/02_businesses_using_collection/android_frame.png'/>"
            },
            {
                "video":  "<video controls id='vid' width='243px' controls='controls'><source src='course/en/images/03_cc_product_catalog/adidas.mp4' type='video/mp4'></video>"
            }
        ]
    },


    {
        "_id": "c-290",
        "_parentId": "b-290",
        "_type": "component",
        "_component": "co-jump",
        "_classes": "color-test",
        "_preLinkBody": "Следующая тема — ",
        "_linkBody": "Создание подборки",
        "_postLinkBody": ".",
        "_link": "#/id/co-250",
        "_graphic": "adapt/css/assets/icon_nextPage.png",
        "_pageLevelProgress": {
            "_isEnabled": false
        }
    },


    {
        "_id": "c-300",
        "_parentId": "b-300",
        "_type": "component",
        "_component": "text",
        "_classes": "",
        "_layout": "full",
        "title": "Представьте основных героев вашей телерекламы или шоу.",
        "displayTitle": "",
        "body": "<h2>Представьте основных героев вашей телерекламы или шоу.</h2><br><br>Формат подборки поможет вам еще раз рассказать о своих «героях». Это может быть герой вашей телерекламы, ТВ-шоу или фильма. Вы сможете привлечь интерес к бренду и рассказать о своих преимуществах.",
        "_pageLevelProgress": {
            "_isEnabled": true
        }
    },
    {
        "_id":"c-301",
        "_parentId":"b-300",
        "_type":"component",
        "_component":"framed-video",
        "_classes":"",
        "_layout":"left",
        "title":"",
        "displayTitle":"",
        "body":"",
        "instruction":"",
        "_mute":"true",
        "_videoPt":{"x":"13px","y":"155px"},
        "_componentHeight":"550px",
        "_items": [
            {
                "frame":  "<img width='100%' height='100%' src='course/en/images/04_cc_no_prod_cat/character_frame.png'>"
            },
            {
                "video":  "<video controls id='vid' width='242px' controls='controls'><source src='course/en/images/04_cc_no_prod_cat/characters1.mp4' type='video/mp4'></video>"
            }
        ]
    },
    {
        "_id":"c-302",
        "_parentId":"b-300",
        "_type":"component",
        "_component":"framed-video",
        "_classes":"",
        "_layout":"right",
        "title":"",
        "displayTitle":"",
        "body":"",
        "instruction":"",
        "_mute":"true",
        "_videoPt":{"x":"13px","y":"71px"},
        "_componentHeight":"550px",
        "_items": [
            {
                "frame":  "<img width='100%' height='100%' src='course/en/images/02_businesses_using_collection/android_frame.png'>"
            },
            {
                "video":  "<video controls id='vid' width='243px' controls='controls'><source src='course/en/images/04_cc_no_prod_cat/characters2.mp4' type='video/mp4'></video>"
            }
        ]
    },

    {
        "_id": "c-310",
        "_parentId": "b-310",
        "_type": "component",
        "_component": "text",
        "_classes": "",
        "_layout": "left",
        "title": "Расскажите о преимуществах своих товаров и услуг.",
        "displayTitle": "",
        "body": "<br><br><h2>Расскажите о преимуществах своих товаров и услуг.</h2><br><br>Это поможет вам заинтересовать людей. Важно обеспечить единообразие изображений. В одном изображении должна быть показана одна характеристика товара. Кроме того, не следует «перегружать» людей информацией о товаре.",
        "_pageLevelProgress": {
            "_isEnabled": true
        }
    },
    {
        "_id":"c-311",
        "_parentId":"b-310",
        "_type":"component",
        "_component":"framed-video",
        "_classes":"",
        "_layout":"right",
        "title":"",
        "displayTitle":"",
        "body":"",
        "instruction":"",
        "_mute":"true",
        "_videoPt":{"x":"0px","y":"0px"},
        "_componentHeight":"600px",
        "_items": [
            {
                "video":  "<video controls id='vid' width='300px' controls='controls'><source src='course/en/images/04_cc_no_prod_cat/dollarshaveclub.mp4' type='video/mp4'></video>"
            }
        ]
    },
    {
        "_id": "c-320",
        "_parentId": "b-320",
        "_type": "component",
        "_component": "text",
        "_classes": "",
        "_layout": "full",
        "title": "Побудите людей узнать больше.",
        "displayTitle": "",
        "body": "<br><h2>Побудите людей узнать больше.</h2><br><br>Расскажите то, о чем не упоминалось в видео. Каждая миниатюра должна быть посвящена одному важному преимуществу товара.  Все преимущества должны быть ясны из изображений.  Предложите несколько вариантов, все из которых должны быть связаны с основным видео.  Вы можете создать полноэкранный Холст, чтобы рассказать о каждом преимуществе с помощью миниатюр.",
        "_pageLevelProgress": {
            "_isEnabled": true
        }
    },
    {
        "_id":"c-321",
        "_parentId":"b-320",
        "_type":"component",
        "_component":"framed-video",
        "_classes":"",
        "_layout":"left",
        "title":"",
        "displayTitle":"",
        "body":"",
        "instruction":"",
        "_mute":"true",
        "_videoPt":{"x":"4px","y":"149px"},
        "_componentHeight":"550px",
        "_items": [
            {
                "frame":  "<img width='100%' height='100%' src='course/en/images/04_cc_no_prod_cat/explore_frame.png'>"
            },
            {
                "video":  "<video controls id='vid' width='260px' controls='controls'><source src='course/en/images/04_cc_no_prod_cat/explore1.mp4' type='video/mp4'></video>"
            }
        ]
    },
    {
        "_id":"c-322",
        "_parentId":"b-320",
        "_type":"component",
        "_component":"framed-video",
        "_classes":"",
        "_layout":"right",
        "title":"",
        "displayTitle":"",
        "body":"",
        "instruction":"",
        "_mute":"true",
        "_videoPt":{"x":"13px","y":"71px"},
        "_componentHeight":"550px",
        "_items": [
            {
                "frame":  "<img width='100%' height='100%' src='course/en/images/02_businesses_using_collection/android_frame.png'>"
            },
            {
                "video":  "<video controls id='vid' width='243px' controls='controls'><source src='course/en/images/04_cc_no_prod_cat/explore2.mp4' type='video/mp4'></video>"
            }
        ]
    },
    {
        "_id": "c-330",
        "_parentId": "b-330",
        "_type": "component",
        "_component": "text",
        "_classes": "",
        "_layout": "left",
        "title": "Направляйте людей.",
        "displayTitle": "",
        "body": "<br><br><h2>Направляйте людей.</h2><br><br>С помощью подборки вы можете сделать каждое изображение началом отдельной истории. Изображения могут помочь вести людей в нужном вам направлении. Каждая миниатюра должна быть четко связана с основным видео.",
        "_pageLevelProgress": {
            "_isEnabled": true
        }
    },
    {
        "_id":"c-331",
        "_parentId":"b-330",
        "_type":"component",
        "_component":"framed-video",
        "_classes":"",
        "_layout":"right",
        "title":"",
        "displayTitle":"",
        "body":"",
        "instruction":"",
        "_mute":"true",
        "_videoPt":{"x":"0px","y":"0spx"},
        "_componentHeight":"550px",
        "_items": [
            {
                "video":  "<video controls id='vid' width='300px' controls='controls'><source src='course/en/images/04_cc_no_prod_cat/royalcaribbeanint.mp4' type='video/mp4'></video>"
            }
        ]
    },
    {
        "_id": "c-390",
        "_parentId": "b-390",
        "_type": "component",
        "_component": "co-jump",
        "_classes": "color-test",
        "_preLinkBody": "Следующая тема — ",
        "_linkBody": "Создание подборки",
        "_postLinkBody": ".",
        "_link": "#/id/co-250",
        "_graphic": "adapt/css/assets/icon_nextPage.png",
        "_pageLevelProgress": {
            "_isEnabled": false
        }
    },



    {
        "_id": "c-400",
        "_parentId": "b-400",
        "_type": "component",
        "_component": "text",
        "_classes": "",
        "_layout": "full",
        "title": "Удобство",
        "displayTitle": "",
        "body": "Создать подборку можно всего за несколько шагов.  Но прежде чем переходить к созданию подборки, давайте поговорим о требованиях к оформлению.",
        "_pageLevelProgress": {
            "_isEnabled": true
        }
    },
    {
        "_id": "c-410",
        "_parentId": "b-410",
        "_type": "component",
        "_component": "text",
        "_classes": "",
        "_layout": "full",
        "title": "Требования к оформлению",
        "displayTitle": "Требования к оформлению",
        "body": "<i>Примечание.</i> В Ленте новостей можно использовать фото или видео.<br><br><b>Фото</b><ul><li>Соотношение сторон изображения: 1,9:1</li><li>Размер изображения: 1 200 x 628 пикселей (рекомендуется)</li><li>Текст должен занимать не более 20% изображения. Реклама с большим количеством текста будет получать низкие результаты или вообще может остаться без показов.</li><li>Текст: 90 символов (рекомендуется)</li><li>Заголовок: 25 символов (рекомендуется)</li></ul><br><b>Видео</b><ul><li>Соотношение сторон: 16:9 или 1:1</li><li>Видео: стандарт сжатия видео H.264, предпочтителен высокий профиль, пиксели широкоформатного кадра, фиксированная частота смены кадров, прогрессивная развертка</li><li>Звук: предпочтительно ― стерео, формат сжатия AAC, от 128 кбит/с</li><li>Быстро привлеките внимание: большинство людей использует мобильные устройства «на ходу», поэтому донесите свое сообщение в самом начале видео.</li><li>Текст: 90 символов</li><li>Заголовок: 25 символов (рекомендуется)</li></ul><br><b>Дополнительные советы</b><ul><li>Постарайтесь, чтобы основное фото, видео или слайд-шоу в рекламе имело четкую связь с представленными товарами. Вы можете включить в рекламу любое количество товаров, связанных с основным изображением.</li><li>Используйте для подборки большую группу продуктов (более 50 товаров). Если какой-либо товар закончится, группа товаров автоматически обновится. Большая группа также помогает Facebook подобрать самые актуальные продукты, чтобы побудить людей перейти на ваш сайт или в приложение за дополнительной информацией.</li><li>Подберите изображения других товаров, чтобы людям захотелось коснуться <b>Еще</b> и посмотреть другие товары.</li><li>При создании рекламы правильно выберите место, куда нужно добавить параметры URL. Если вы добавите их в URL места назначения, вы сможете отслеживать количество людей, нажавших ссылку на ваш сайт, а не на товары.</li></ul>",
        "_pageLevelProgress": {
            "_isEnabled": true
        }
    },
    {
        "_id":"c-420",
        "_parentId":"b-420",
        "_type":"component",
        "_component": "survey-radio",
        "_classes": "",
        "_layout": "full",
        "title": "Создание подборки",
        "displayTitle": "Создание подборки",
        "body": "В рекламе с подборкой можно использовать каталог продуктов или Холст. Это зависит от вашей цели.<br><br>Какое описание больше подходит вам?",
          "instruction": "",
        "_pageLevelProgress": {
            "_isEnabled": true
        },
        "_isComplete": false,
        "userSelection": [],
        "_items": [
          {
            "label": "Я занимаюсь электронной или розничной торговлей, и у меня уже есть каталог продуктов (или я планирую его создать).",
            "value": "1"
          },
          {
            "label": "Я рекламодатель, который хочет найти новых клиентов или повысить узнаваемость товаров, но у меня нет каталога продуктов.",
            "value": "2"
          }
        ]
      },
    {
        "_id":"c-421",
        "_parentId":"b-420",
        "_type": "component",
        "_component": "survey-feedback",
        "_classes": "",
        "_layout": "full",
        "title": "",
        "displayTitle": "",
        "body": "",
          "instruction": "",
        "_pageLevelProgress": {
                "_isEnabled": false
        },
        "_isComplete": false,
        "feedbackBody": "",
        "feedbackPostBody": "",
        "prefix": "",
        "suffix": "",
        "limitFeedback": true,
        "feedback": [
          {
            "resultsFor": ["c-420"],
            "condition": "is",
            "value": "1",
            "response": "Если вы занимаетесь электронной или розничной торговлей и у вас уже есть каталог продуктов или вы хотите его создать, вы можете воспользоваться рекламой с подборкой, чтобы показать свои товары.<br><br>Инструкции по созданию подборки с каталогом продуктов см. в модуле <a href='#/id/co-300'>Создание подборки с помощью каталога продуктов</a>.<br><br>"
          },
          {
            "resultsFor": ["c-420"],
            "condition": "is",
            "value": "2",
            "response": "Если вы хотите найти новых клиентов или повысить узнаваемость своих товаров, но у вас нет каталога продуктов, вы можете создать подборку на Холсте.<br><br>Холст — это полноэкранный интерфейс отображения рекламы на мобильных устройствах. Он поддерживает все форматы рекламы на Facebook: фото, видео, кольцевую галерею, слайд-шоу и подборку. Когда человек касается рекламы в Ленте новостей Facebook на мобильном устройстве, Холст разворачивается во весь экран, позволяя пролистать рекламные материалы.<br><br>Холст можно создать на основе шаблона с помощью имеющихся ресурсов бренда/целевой страницы или «с нуля».  Как и в случае с каталогом продуктов, из Холста вы можете взять четыре фото, чтобы показать их под основным изображением или видео подборки.<br><br>Инструкции по созданию подборки с помощью Холста см. в модуле <a href='#/id/co-350'>Создание подборки с помощью Холста</a>.<br><br>"
          }
        ]
    },


    {
        "_id": "c-500",
        "_parentId": "b-500",
        "_type": "component",
        "_component": "text",
        "_classes": "",
        "_layout": "full",
        "title": "Введение",
        "displayTitle": "",
        "body": "Создать подборку с помощью каталога продуктов можно в Ads Manager или в Power Editor.<br><br>Для этого вам потребуются:<ul><li> изображение или видео;</li><li>каталог продуктов.<br>Подробнее о том, как <a href='https://www.facebook.com/business/help/890714097648074' target='_blank'>создать каталог продуктов</a>.</li></ul>",
        "_pageLevelProgress": {
            "_isEnabled": true
        }
    },
    {
        "_id": "c-510",
        "_parentId": "b-510",
        "_type": "component",
        "_component": "text",
        "_classes": "",
        "_layout": "full",
        "title": "Создание подборки с помощью каталога продуктов в Ads Manager",
        "displayTitle": "Создание подборки с помощью каталога продуктов в Ads Manager",
        "body": "<ol><li>Откройте <a href='https://www.facebook.com/ads/manager/creation' target='_blank'>Ads Manager</a>.</li><li>Выберите цель, которую поддерживает подборка («Трафик» или «Конверсии»), а затем нажмите <b>Продолжить</b>.</li><li>Выберите <b>Сайт или Messenger</b> или <b>Приложение</b>.<br>Если вы используете приложение, рекомендуем размещать ссылки непосредственно на представленные в нем товары.</li><li>Выберите аудиторию, бюджет, график и нажмите <b>Продолжить</b>.</li><li>На уровне объявления выберите Страницу Facebook, которая представляет вашу компанию.</li><li>Выберите формат <b>Подборка</b>.<br><img src='course/en/images/05_collection_with_product_catalog/formats.png'></li><li>В разделе <b>Полноэкранное поле для творчества</b> нажмите вкладку <b>Создать</b>.</li><li>Наведите курсор на шаблон <b>Продажа продуктов</b> и нажмите <b>Использовать шаблон</b>.<br><img src='course/en/images/05_collection_with_product_catalog/use_template.png'></li><li>Создайте Холст для рекламы в формате подборки. При создании Холста все изменения, которые вы внесете, будут отображаться в окне предварительного просмотра. Вы можете добавить следующие элементы:<br><img src='course/en/images/05_collection_with_product_catalog/canvas_details.png'><br><br><ul><li><b>Изображение или видео обложки</b>: выберите файл, который будет служить обложкой в рекламе с подборкой: одно изображение, одно видео, слайд-шоу или видео 360°.<br><br><i>Примечание.</i> Если вы используете в качестве обложки видео 360°, вы не сможете посмотреть это видео, пока не опубликуете рекламу. Подробнее о <a href='https://www.facebook.com/help/828417127257368?helpref=faq_content' target='_blank'>загрузке видео 360°</a>.</li><br><li><b>Продукт:</b> выберите каталог и группу продуктов, которые вы хотите показать в рекламе. Если вы хотите создать новую группу продуктов, нажмите <b>+</b>.<br><br>(Необязательно) Нажмите <b>Показать расширенные параметры</b>, чтобы обновить поля <b>Наименование продукта</b> и <b>Описание продукта</b> в рекламе с подборкой. Например, вы можете удалить цены на продукты из поля <b>Описание продукта</b>, если эти цены зависят от региона. <b>Описание продукта</b> можно удалить, а <b>Наименование продукта</b> — это обязательное поле, которое удалять нельзя.</li><br><li><b>Постоянная кнопка:</b> добавьте текст кнопки и URL места назначения. При нажатии на эту кнопку на мобильном устройстве человек сразу же перейдет на страницу со всеми товарами или услугами вашей компании.<br><br><i>Совет.</i> Мы рекомендуем направлять людей в раздел, где они смогут увидеть больше товаров, чем в рекламе.</li></ul></li><br><li>Нажмите <b>Готово</b>.<br><i>Примечание.</i> Если вы получите уведомление о том, что выбранные плейсменты не поддерживают вашу рекламу, нажмите ссылку в этом уведомлении, чтобы удалить неподдерживаемые плейсменты из рекламы.</li><li>Добавьте заголовок (рекомендуемая длина: 25 символов) и текст (рекомендуемая длина: 90 символов).<li>Раздел <b>Продукты в Ленте новостей</b> позволяет управлять четырьмя изображениями продуктов, которые расположены под видео, слайд-шоу или изображением. <br><img src='course/en/images/05_collection_with_product_catalog/products_featured.png'><br>Мы рекомендуем использовать параметр <b>Выбрать автоматически (рекомендуется)</b>, чтобы Facebook выбрал четыре товара из вашей группы. По умолчанию эти изображения ранжируются по популярности или вероятности покупки.<br><br>Вы можете выбрать параметр <b>Выберите до 4 продуктов, которые вы хотите выделить</b>.  Нажмите <b>Настроить</b>, чтобы самостоятельно выбрать от 1 до 4 изображений из группы продуктов. Выбранные вами изображения не будут ранжироваться по вероятности покупки. Нажмите <b>Подтвердить</b>, чтобы подтвердить выбор.</li><li>Выберите целевую страницу ссылки на приложение. Целевая страница ссылки на приложение — это страница, куда люди переходят, когда нажимают ссылку на приложение, если оно установлено у них, или резервная целевая страница, если приложение не установлено.</li><li>(Необязательно) Если вы хотите узнать, что произойдет, когда человек нажмет рекламу в Ленте новостей, нажмите <b>Предварительный просмотр</b>.</li><li>(Необязательно) Добавьте в рекламу параметр URL, если хотите узнать, откуда приходят люди, когда взаимодействуют с вашей рекламой с подборкой.</li><li>1. Нажмите <b>Разместить заказ</b>, чтобы опубликовать рекламу.</li></ol>",
        "_pageLevelProgress": {
            "_isEnabled": true
        }
    },
    {
        "_id": "c-520",
        "_parentId": "b-520",
        "_type": "component",
        "_component": "text",
        "_classes": "",
        "_layout": "full",
        "title": "Создание подборки с помощью каталога продуктов в Power Editor",
        "displayTitle": "Создание подборки с помощью каталога продуктов в Power Editor",
        "body": "<ol><li>Откройте <a href='https://www.facebook.com/ads/manage/powereditor' target='_blank'>Power Editor</a>.</li><li>Выберите вкладку <b>Реклама</b>.</li><li>Нажмите кнопку <b>Создать рекламу</b>.</li><li>Выберите кампанию и группу объявлений, которую хотите использовать для рекламы, или нажмите <b>Создать</b>, чтобы создать новую кампанию или группу объявлений.</li><li>Введите название рекламы и нажмите <b>Создать</b>.</li><li>Выберите свою Страницу Facebook и аккаунт Instagram, которые будут представлять вашу компанию.</li><li>Выберите формат <b>Подборка</b>.</li><li>В разделе <b>Полноэкранное поле для творчества</b> нажмите <b>Создать с помощью шаблона</b>.</li><li>Выберите шаблон <b>Продажа продуктов</b> в раскрывающемся меню и нажмите <b>Использовать шаблон</b>.</li><li>Создайте Холст для рекламы в формате подборки. При создании Холста все изменения, которые вы внесете, будут отображаться в окне предварительного просмотра. Вы можете добавить следующие элементы:<br><img src='course/en/images/05_collection_with_product_catalog/canvas_details.png'><br><br><ul><li><b>Изображение или видео обложки</b>: выберите файл, который будет служить обложкой в рекламе с подборкой: одно изображение, одно видео, слайд-шоу или видео 360°.<br><br><i>Примечание.</i> Если вы используете в качестве обложки видео 360°, вы не сможете посмотреть это видео, пока не опубликуете рекламу. Подробнее о <a href='https://www.facebook.com/help/828417127257368?helpref=faq_content' target='_blank'>загрузке видео 360°</a>.</li><br><li><b>Продукт:</b> выберите каталог и группу продуктов, которые вы хотите показать в рекламе. Если вы хотите создать новую группу продуктов, нажмите <b>+</b>.<br><br>(Необязательно) Нажмите <b>Показать расширенные параметры</b>, чтобы обновить поля <b>Наименование продукта</b> и <b>Описание продукта</b> в рекламе с подборкой. Например, вы можете удалить цены на продукты из поля <b>Описание продукта</b>, если эти цены зависят от региона. <b>Описание продукта</b> можно удалить, а <b>Наименование продукта</b> — это обязательное поле, которое удалять нельзя.</li><br><li><b>Постоянная кнопка:</b> добавьте текст кнопки и URL места назначения. При нажатии на эту кнопку на мобильном устройстве человек сразу же перейдет на страницу со всеми товарами или услугами вашей компании.<br><br><i>Совет.</i> Мы рекомендуем направлять людей в раздел, где они смогут увидеть больше товаров, чем в рекламе.</li></ul></li><br><li>Нажмите <b>Готово</b>.<br><i>Примечание.</i> Если вы получите уведомление о том, что выбранные плейсменты не поддерживают вашу рекламу, нажмите ссылку в этом уведомлении, чтобы удалить неподдерживаемые плейсменты из рекламы.</li><li>Добавьте заголовок (рекомендуемая длина: 25 символов) и текст (рекомендуемая длина: 90 символов).<li>Раздел <b>Продукты в Ленте новостей</b> позволяет управлять четырьмя изображениями продуктов, которые расположены под видео, слайд-шоу или изображением. <br><img src='course/en/images/05_collection_with_product_catalog/products_featured.png'><br>Мы рекомендуем использовать параметр <b>Выбрать автоматически (рекомендуется)</b>, чтобы Facebook выбрал четыре товара из вашей группы. По умолчанию эти изображения ранжируются по популярности или вероятности покупки.<br><br>Вы можете выбрать параметр <b>Выберите до 4 продуктов, которые вы хотите выделить</b>.  Нажмите <b>Настроить</b>, чтобы самостоятельно выбрать от 1 до 4 изображений из группы продуктов. Выбранные вами изображения не будут ранжироваться по вероятности покупки. Нажмите <b>Подтвердить</b>, чтобы подтвердить выбор.</li><li>Выберите целевую страницу ссылки на приложение. Целевая страница ссылки на приложение — это страница, куда люди переходят, когда нажимают ссылку на приложение, если оно установлено у них, или резервная целевая страница, если приложение не установлено.</li><li>(Необязательно) Если вы хотите узнать, что произойдет, когда человек нажмет рекламу в Ленте новостей, нажмите <b>Предварительный просмотр</b>.</li><li>(Необязательно) Добавьте в рекламу параметр URL, если хотите узнать, откуда приходят люди, когда взаимодействуют с вашей рекламой в формате подборки.</li><li>1. Нажмите <b>Проверить изменения</b>, чтобы опубликовать рекламу.</li></ol>",
        "_pageLevelProgress": {
            "_isEnabled": true
        }
    },
    {
        "_id": "c-530",
        "_parentId": "b-530",
        "_type": "component",
        "_component": "text",
        "_classes": "",
        "_layout": "full",
        "title": "Ресурсы",
        "displayTitle": "",
        "body": "Более подробную информацию о создании подборки и ответы на часто задаваемые вопросы см. в <a href='https://www.facebook.com/business/help/429550437381481' target='_blank'>Справочном центре рекламодателя</a>.<br><br>Вы также можете вернуться, чтобы узнать, как <a href='#/id/co-350'>создать подборку без каталога продуктов</a>.",
        "_pageLevelProgress": {
            "_isEnabled": true
        }
    },
    {
        "_id": "c-590",
        "_parentId": "b-590",
        "_type": "component",
        "_component": "co-jump",
        "_classes": "color-test",
        "_preLinkBody": "А теперь  небольшой ",
        "_linkBody": "тест",
        "_postLinkBody": ".",
        "_link": "#/id/co-400",
        "_graphic": "adapt/css/assets/icon_nextPage.png",
        "_pageLevelProgress": {
            "_isEnabled": false
        }
    },





    {
        "_id": "c-600",
        "_parentId": "b-600",
        "_type": "component",
        "_component": "text",
        "_classes": "",
        "_layout": "full",
        "title": "Введение",
        "displayTitle": "",
        "body": "Если у вас нет каталога продуктов, вы можете создать подборку на Холсте. Холст — это полноэкранный интерфейс для мобильных устройств. Он поддерживает все форматы рекламы на Facebook: фото, видео, кольцевую галерею, слайд-шоу и подборку. Когда человек касается рекламы в Ленте новостей Facebook на мобильном устройстве, Холст разворачивается во весь экран, позволяя узнать больше о вашей компании.<br><br>При использовании подборки с Холстом вы можете разместить миниатюры с материалами рекламы под Холстом. Коснувшись миниатюры, человек перейдет в раздел Холста, в котором находится этот материал.",
        "_pageLevelProgress": {
            "_isEnabled": true
        }
    },
    {
        "_id": "c-610",
        "_parentId": "b-610",
        "_type": "component",
        "_component": "text",
        "_classes": "",
        "_layout": "full",
        "title": "Создание подборки с полноэкранным Холстом в Ads Manager",
        "displayTitle": "Создание подборки с полноэкранным Холстом в Ads Manager",
        "body": "<ol><li>Откройте <a href='https://www.facebook.com/ads/manager/creation' target='_blank'>Ads Manager</a>.</li><li>Выберите цель, которую поддерживает подборка («Трафик» или «Конверсии»), а затем нажмите <b>Продолжить</b>.</li><li>Выберите <b>Сайт или Messenger</b> или <b>Приложение</b>.<br>Если вы используете приложение, рекомендуем размещать ссылки непосредственно на представленные в нем товары.</li><li>Настройте аудиторию, бюджет, график и нажмите <b>Продолжить</b>.</li><li>На уровне объявления выберите Страницу Facebook, которая представляет вашу компанию.</li><li>Выберите формат <b>Подборка</b>.<br><img src='course/en/images/05_collection_with_product_catalog/formats.png'></li><li>В разделе <b>Полноэкранное поле для творчества</b> поставьте галочку <b>Добавить полноэкранный Холст</b>.</li><li>Создайте полноэкранный Холст. Вам доступно несколько вариантов.<ul><li><b>Выбрать шаблон полноэкранного Холста</b>: создайте Холст на основе шаблона. Выберите шаблон, который соответствует цели вашей рекламы (например, представить бренд, показать товар, предложить услугу или увеличить продажи).</li><li><b>Создать индивидуально настроенный Холст</b>: воспользуйтесь конструктором Холста, чтобы создать свой макет. Откройте в нем пустой Холст и добавьте на него различные компоненты.</li><li><b>Использовать имеющийся Холст</b>: если у вас уже есть полноэкранный Холст, выберите <b>Использовать существующий</b> и введите название Холста.<br><img src='course/en/images/06_collection_with_canvas/3templates.png'></li></ul></li><li>Введите текст заголовка (рекомендуемая длина — 25 символов) и при необходимости текст о том, что вы продвигаете или продаете (рекомендуемая длина — до 90 символов).</li><li>Раздел <b>Изображения, представленные в Ленте новостей</b> позволяет управлять четырьмя миниатюрами товаров, которые расположены под основным фото, слайд-шоу или видео. Коснувшись миниатюры, человек переходит в раздел с этим изображением на Холсте.</li><li>Нажмите <b>Предварительный просмотр</b> в разделе «Вид после клика», чтобы посмотреть, как будет выглядеть реклама, после того как человек нажмет ее.<br><br>Чтобы отправить рекламу в формате подборки на мобильное устройство и посмотреть ее в приложении Facebook, нажмите значок <b>Отправить уведомление на Facebook</b> <img src='course/en/images/06_collection_with_canvas/send.png'>.</li><li>Когда закончите предварительный просмотр, нажмите <b>Разместить заказ</b>.</li></ol>",
        "_pageLevelProgress": {
            "_isEnabled": true
        }
    },
    {
        "_id": "c-620",
        "_parentId": "b-620",
        "_type": "component",
        "_component": "text",
        "_classes": "",
        "_layout": "full",
        "title": "Создание подборки с полноэкранным Холстом в Power Editor",
        "displayTitle": "Создание подборки с полноэкранным Холстом в Power Editor",
        "body": "<ol><li>Откройте <a href='https://www.facebook.com/ads/manage/powereditor' target='_blank'>Power Editor</a>.</li><li>Выберите вкладку <b>Реклама</b>.</li><li>Нажмите кнопку <b>Создать рекламу</b>.</li><li>Выберите кампанию и группу объявлений, которую хотите использовать для рекламы, или нажмите <b>Создать</b>, чтобы создать новую кампанию или группу объявлений. <i>Примечание.</i> Формат подборки доступен только для целей «Трафик» и «Конверсии».</li><li>Введите название рекламы и нажмите <b>Создать</b>.</li><li>Выберите свою Страницу Facebook и аккаунт Instagram, которые будут представлять вашу компанию.</li><li>Выберите формат <b>Подборка</b>.<br><img src='course/en/images/05_collection_with_product_catalog/pe_formats.png'></li><li>Затем выберите <b>Изображение</b> или <b>Видео/слайд-шоу</b>, которые будут отображаться в Ленте новостей.</li><li>В разделе <b>Полноэкранное поле для творчества</b> поставьте галочку <b>Добавить полноэкранный Холст</b>.</li><li>Создайте Холст. Вам доступно несколько вариантов.<ul><li><b>Выбрать шаблон полноэкранного Холста</b>: создайте Холст на основе шаблона. Выберите шаблон, который соответствует цели вашей рекламы (например, представить бренд, показать товар, предложить услугу или увеличить продажи).</li><li><b>Создать индивидуально настроенный Холст</b>: воспользуйтесь конструктором Холста, чтобы создать свой макет. Откройте в нем пустой Холст и добавьте на него различные компоненты.</li><li><b>Использовать имеющийся Холст</b>: если у вас уже есть полноэкранный Холст, выберите <b>Использовать существующий</b> и введите название Холста.<br><img src='course/en/images/06_collection_with_canvas/3templates.png'></li></ul></li><li>Введите текст заголовка (рекомендуемая длина — 25 символов) и при необходимости текст о том, что вы продвигаете или продаете (рекомендуемая длина — до 90 символов).</li><li>Раздел <b>Изображения, представленные в Ленте новостей</b> позволяет управлять четырьмя миниатюрами товаров, которые расположены под основным фото, слайд-шоу или видео. Коснувшись миниатюры, человек переходит в раздел с этим изображением на Холсте.</li><li>Нажмите <b>Предварительный просмотр</b> в разделе «Вид после клика», чтобы посмотреть, как будет выглядеть реклама, после того как человек нажмет ее.<br><br>Чтобы отправить рекламу в формате подборки на мобильное устройство и посмотреть ее в приложении Facebook, нажмите значок <b>Отправить уведомление на Facebook</b> <img src='course/en/images/06_collection_with_canvas/send.png'>.</li><li>Когда закончите предварительный просмотр, нажмите <b>Загрузить изменения</b>.</li></ol>",
        "_pageLevelProgress": {
            "_isEnabled": true
        }
    },
    {
        "_id": "c-680",
        "_parentId": "b-680",
        "_type": "component",
        "_component": "text",
        "_classes": "",
        "_layout": "full",
        "title": "Ресурсы",
        "displayTitle": "",
        "body": "Более подробную информацию о создании подборки и ответы на часто задаваемые вопросы см. в <a href='https://www.facebook.com/business/help/429550437381481' target='_blank'>Справочном центре рекламодателя</a>.<br><br>Подробнее о Холсте см. в курсе <i>Взаимодействие аудитории с полноэкранным Холстом</i>.<br><br>Если вы хотите использовать для подборки каталог, вернитесь, чтобы узнать, как <a href='#/id/co-300'>создать подборку с помощью каталога продуктов</a>.",
        "_pageLevelProgress": {
            "_isEnabled": true
        }
    },
    {
        "_id": "c-690",
        "_parentId": "b-690",
        "_type": "component",
        "_component": "co-jump",
        "_classes": "color-test",
        "_preLinkBody": "А теперь  небольшой ",
        "_linkBody": "тест",
        "_postLinkBody": ".",
        "_link": "#/id/co-400",
        "_graphic": "adapt/css/assets/icon_nextPage.png",
        "_pageLevelProgress": {
            "_isEnabled": false
        }
    },


    {
    "_id":"c-700",
    "_parentId":"b-700",
    "_type":"component",
    "_component":"mcq",
    "_classes":"",
    "_layout":"full",
    "_attempts":1,
    "_questionWeight":1,
    "_isRandom":false,
    "_selectable":4,
    "title": "Вопрос 1 из 5",
    "_setCompletionOn":"inview",
    "displayTitle": "Вопрос 1 из 5",
    "body": "В чем преимущества формата подборки для рекламодателей?  (Выберите четыре варианта.)",
    "instruction": "",
    "_items": [
            {
                "text": "Подборка позволяет рекламировать два или три товара в одном объявлении.",
                "_shouldBeSelected":false
            },
            {
                "text": "Подборка помогает мобильным пользователям найти товары, а вам — увеличить продажи.",
                "_shouldBeSelected":true
            },
            {
                "text": "Подборка помогает компаниям рассказывать о себе, своих товарах и их преимуществах.",
                "_shouldBeSelected":true
            },
            {
                "text": "Подборка позволяет компаниям находить новых клиентов.",
                "_shouldBeSelected":true
            },
            {
                "text": "Подборка помогает компаниям направить заинтересованных клиентов на сайт или в приложение для совершения покупок.",
                "_shouldBeSelected":true
            }
        ],
        "_feedback":{
            "correct":"Верно!  Подборка помогает компаниям повысить узнаваемость бренда, найти клиентов и увеличить продажи. Реклама в формате подборки помогает компаниям рассказать о себе, представить товары и их уникальные преимущества.",
            "_incorrect": {
                "notFinal": "Подборка помогает компаниям повысить узнаваемость бренда, найти клиентов и увеличить продажи. Реклама в формате подборки помогает компаниям рассказать о себе, представить товары и их уникальные преимущества."
            },
            "_partlyCorrect": {
                "notFinal": "Подборка помогает компаниям повысить узнаваемость бренда, найти клиентов и увеличить продажи. Реклама в формате подборки помогает компаниям рассказать о себе, представить товары и их уникальные преимущества.",
                "final": "Подборка помогает компаниям повысить узнаваемость бренда, найти клиентов и увеличить продажи. Реклама в формате подборки помогает компаниям рассказать о себе, представить товары и их уникальные преимущества."
            }
        },
        "_pageLevelProgress": {
            "_isEnabled": true
        }
    },
    {
        "_id":"c-710",
        "_parentId":"b-710",
        "_type":"component",
        "_component":"mcq",
        "_classes":"",
        "_layout":"full",
        "_attempts":1,
        "_questionWeight":1,
        "_isRandom":false,
        "_selectable":1,
        "_setCompletionOn":"inview",
        "title": "Вопрос 2 из 5",
        "displayTitle": "Вопрос 2 из 5",
        "body": "Где доступны подборки?",
        "instruction": "",
        "_items": [
            {
                "text": "Facebook на мобильных устройствах",
                "_shouldBeSelected":true
            },
            {
                "text": "Facebook на ПК",
                "_shouldBeSelected":false
            },
            {
                "text": "Правый столбец на Facebook",
                "_shouldBeSelected":false
            },
            {
                "text": "Instagram для мобильных устройств",
                "_shouldBeSelected":false
            },
            {
                "text": "Instagram для ПК",
                "_shouldBeSelected":false
            },
            {
                "text": "Audience Network",
                "_shouldBeSelected":false
            },
            {
                "text": "Messenger",
                "_shouldBeSelected":false
            }
        ],
        "_feedback":{
            "correct":"Верно! Подборки доступны на Facebook и только на мобильных устройствах.",
            "_incorrect": {
                "final": "Это неверный ответ.  Подборки доступны на Facebook и только на мобильных устройствах."
            }
        },
        "_pageLevelProgress": {
            "_isEnabled": true
        }
    },
    {
        "_id":"c-720",
        "_parentId":"b-720",
        "_type":"component",
        "_component":"mcq",
        "_classes":"",
        "_layout":"full",
        "_attempts":1,
        "_questionWeight":1,
        "_isRandom":false,
        "_selectable":1,
        "title": "Вопрос 3 из 5",
        "_setCompletionOn":"inview",
        "displayTitle": "Вопрос 3 из 5",
        "body": "Каковы требования к созданию подборки?",
        "instruction": "",
        "_items": [
            {
                "text": "Вам необходимо иметь каталог продуктов и группу продуктов.",
                "_shouldBeSelected":false
            },
            {
                "text": "Необходимо добавить полноэкранный Холст.",
                "_shouldBeSelected":false
            },
            {
                "text": "Необходимо выбрать цель рекламы, которая поддерживает формат подборки.",
                "_shouldBeSelected":true
            },
            {
                "text": "Необходимо опубликовать в Ленте новостей видео, способное привлечь внимание аудитории.",
                "_shouldBeSelected":false
            }
        ],
        "_feedback":{
            "correct":"Верно!  Чтобы создать подборку, нужно выбрать цель, которая поддерживается этим форматом.  Если у вас нет каталога продуктов, вы можете создать Холст с подборкой.",
            "_incorrect": {
                "notFinal": "Чтобы создать подборку, нужно выбрать цель, которая поддерживается этим форматом.  Если у вас нет каталога продуктов, вы можете создать Холст с подборкой.",
                "final": "К сожалению, ответ неверный. Чтобы создать подборку, нужно выбрать цель, которая поддерживается этим форматом.  Если у вас нет каталога продуктов, вы можете создать Холст с подборкой."
            },
            "_partlyCorrect": {
                "notFinal": "Чтобы создать подборку, нужно выбрать цель, которая поддерживается этим форматом.  Если у вас нет каталога продуктов, вы можете создать Холст с подборкой.",
                "final": "Чтобы создать подборку, нужно выбрать цель, которая поддерживается этим форматом.  Если у вас нет каталога продуктов, вы можете создать Холст с подборкой."
            }
        },
        "_pageLevelProgress": {
            "_isEnabled": true
        }
    },
    {
        "_id":"c-730",
        "_parentId":"b-730",
        "_type":"component",
        "_component":"mcq",
        "_classes":"",
        "_layout":"full",
        "_attempts":1,
        "_questionWeight":1,
        "_isRandom":false,
        "_selectable":2,
        "_setCompletionOn":"inview",
        "title": "Вопрос 4 из 5",
        "displayTitle": "Вопрос 4 из 5",
        "body": "Какие из перечисленных целей поддерживает формат подборки?  (Выберите два варианта.)",
        "instruction": "",
        "_items": [
            {
                "text": "Трафик",
                "_shouldBeSelected":true
            },
            {
                "text": "Конверсии",
                "_shouldBeSelected":true
            },
            {
                "text": "Продажи по каталогу продуктов",
                "_shouldBeSelected":false
            },
            {
                "text": "Локатор магазинов",
                "_shouldBeSelected":false
            }
        ],
        "_feedback":{
            "correct":"Верно!  На сегодняшний день формат подборки поддерживает цели «Трафик» и «Конверсии».",
            "_incorrect": {
                "notFinal": "К сожалению, ответ неверный.  На сегодняшний день формат подборки поддерживает цели «Трафик» и «Конверсии».",
                "final": "К сожалению, ответ неверный.  На сегодняшний день формат подборки поддерживает цели «Трафик» и «Конверсии»."
            },
            "_partlyCorrect": {
                "notFinal": "На сегодняшний день формат подборки поддерживает цели «Трафик» и «Конверсии».",
                "final": "На сегодняшний день формат подборки поддерживает цели «Трафик» и «Конверсии»."
            }
        },
        "_pageLevelProgress": {
            "_isEnabled": true
        }
    },
    {
        "_id":"c-740",
        "_parentId":"b-740",
        "_type":"component",
        "_component":"mcq",
        "_classes":"",
        "_layout":"full",
        "_attempts":1,
        "_questionWeight":1,
        "_isRandom":false,
        "_selectable":2,
        "_setCompletionOn":"inview",
        "title": "Вопрос 5 из 5",
        "displayTitle": "Вопрос 5 из 5",
        "body": "Если вы хотите привлечь клиентов или повысить узнаваемость своих товаров, но у вас нет каталога продуктов, что вы можете сделать? (Выберите два варианта.)",
        "instruction": "",
        "_items": [
            {
                "text": "Вы не можете использовать подборку, если у вас нет каталога продуктов.",
                "_shouldBeSelected":false
            },
            {
                "text": "Вы можете создать каталог продуктов.",
                "_shouldBeSelected":true
            },
            {
                "text": "Вы можете создать полноэкранный Холст для использования с подборкой.",
                "_shouldBeSelected":true
            },
            {
                "text": "Вы можете загрузить и показывать изображения со своего сайта.",
                "_shouldBeSelected":false
            }
        ],
        "_feedback":{
            "correct":"Верно!  Вы можете создать каталог продуктов или использовать полноэкранный Холст с подборкой.",
            "_incorrect": {
                "notFinal": "К сожалению, ответ неверный.  Вы можете создать каталог продуктов или использовать полноэкранный Холст с подборкой.",
                "final": "К сожалению, ответ неверный.  Вы можете создать каталог продуктов или использовать полноэкранный Холст с подборкой."
            },
            "_partlyCorrect": {
                "notFinal": "Вы можете создать каталог продуктов или использовать полноэкранный Холст с подборкой.",
                "final": "Вы можете создать каталог продуктов или использовать полноэкранный Холст с подборкой."
            }
        },
        "_pageLevelProgress": {
            "_isEnabled": true
        }
    },
    {
        "_id":"c-790",
        "_parentId":"b-790",
        "_type":"component",
        "_component":"co-jump",
        "_classes":"color-test",
        "_autoComplete":true,
        "_preLinkBody":"Чтобы завершить курс, нажмите кнопку ниже. Примечание. Нажмите <a href='#'>здесь</a>, чтобы проверить, все ли модули вы прошли до конца.<br>",
        "_linkBody":"<div style = 'text-align:center;padding:8px;'><button class='buttons-action'><b>КУРС ПРОЙДЕН</b></button></div><br> ",
        "_postLinkBody":"",
        "_link":"",
        "_pageLevelProgress": {
            "_isEnabled": false
        }
    }

]
